{"content":[{"id":1,"fullName":"Aarav Sharma","email":"aarav.sharma@gmail.com","phone":"9876543210","branch":"CSE","yop":2023,"active":true,"createdAt":"2025-11-18T20:54:39.859937","updatedAt":"2025-11-18T20:54:39.859937"},{"id":2,"fullName":"Priya Iyer","email":"priya.iyer@outlook.com","phone":"9123456780","branch":"ECE","yop":2022,"active":true,"createdAt":"2025-11-18T20:54:40.039837","updatedAt":"2025-11-18T20:54:40.039837"},{"id":3,"fullName":"Rohan Mehta","email":"rohan.mehta@yahoo.com","phone":"9812233445","branch":"MECH","yop":2021,"active":true,"createdAt":"2025-11-18T20:54:40.209499","updatedAt":"2025-11-18T20:54:40.209499"},{"id":4,"fullName":"Sneha Patel","email":"sneha.patel@gmail.com","phone":"9898765432","branch":"IT","yop":2024,"active":true,"createdAt":"2025-11-18T20:54:40.2717","updatedAt":"2025-11-18T20:54:40.2717"},{"id":5,"fullName":"Vikram Singh","email":"vikram.singh@outlook.com","phone":"9955122233","branch":"CIVIL","yop":2020,"active":true,"createdAt":"2025-11-18T20:54:40.343628","updatedAt":"2025-11-18T20:54:40.343628"}],"pageable":{"pageNumber":0,"pageSize":5,"sort":{"empty":true,"sorted":false,"unsorted":true},"offset":0,"paged":true,"unpaged":false},"last":false,"totalPages":2,"totalElements":10,"size":5,"number":0,"sort":{"empty":true,"sorted":false,"unsorted":true},"numberOfElements":5,"first":true,"empty":false}